Count,Device,n,Action,FrameRate
HOLOLENS-J2BLE,1,Translate,59.66502,
HOLOLENS-J2BLE,2,Translate,60.07359,
HOLOLENS-J2BLE,3,Translate,60.06953,
HOLOLENS-J2BLE,4,Rotate,59.78452,
HOLOLENS-J2BLE,4,Translate,58.5218,
HOLOLENS-J2BLE,5,Translate,57.6909,
HOLOLENS-J2BLE,6,Translate,40.98846,
HOLOLENS-J2BLE,7,Translate,30.03277,
HOLOLENS-J2BLE,8,Translate,30.02972,
HOLOLENS-J2BLE,9,Translate,29.84244,
HOLOLENS-J2BLE,10,Translate,19.27075,
HOLOLENS-J2BLE,11,Translate,19.46609,
HOLOLENS-J2BLE,12,Translate,15.01806,
HOLOLENS-J2BLE,13,Translate,14.89714,
HOLOLENS-J2BLE,15,Translate,10.02005,
HOLOLENS-J2BLE,17,Translate,7.311213,
